3 Part II — Forecasting with modeltime & tidymodels – Practical Forecasting in R with fable & modeltime
…
xgb_fc <- xgb_calib %>%
  modeltime::modeltime_forecast(
    new_data    = rsample::testing(splits),
    actual_data = data
  )

xgb_fc

# Forecast Results

Conf Method: conformal_default | Conf Interval: 0.95 | Conf By ID: FALSE
(GLOBAL CONFIDENCE)

# A tibble: 820 × 7
   .model_id .model_desc .key   .index     .value .conf_lo .conf_hi
       <int> <chr>       <fct>  <date>      <dbl>    <dbl>    <dbl>
 1        NA ACTUAL      actual 2020-01-01  0.222       NA       NA
 2        NA ACTUAL      actual 2020-01-02  1.07        NA       NA
 3        NA ACTUAL      actual 2020-01-03  1.68        NA       NA
 4        NA ACTUAL      actual 2020-01-04  1.84        NA       NA
 5        NA ACTUAL      actual 2020-01-05  1.35        NA       NA
 6        NA ACTUAL      actual 2020-01-06  0.998       NA       NA
 7        NA ACTUAL      actual 2020-01-07  1.37        NA       NA
 8        NA ACTUAL      actual 2020-01-08  2.13        NA       NA
 9        NA ACTUAL      actual 2020-01-09  2.64        NA       NA
10        NA ACTUAL      actual 2020-01-10  3.08        NA       NA
# ℹ 810 more rows
…
